<?xml version="1.0" encoding="UTF-8" standalone="no"?>
<svg width="18px" height="18px" viewBox="0 0 18 18" version="1.1" xmlns="http://www.w3.org/2000/svg" xmlns:xlink="http://www.w3.org/1999/xlink" xmlns:sketch="http://www.bohemiancoding.com/sketch/ns">
    <!-- Generator: Sketch 3.2 (9964) - http://www.bohemiancoding.com/sketch -->
    <title>Imported Layers</title>
    <desc>Created with Sketch.</desc>
    <defs></defs>
    <g id="Page-1" stroke="none" stroke-width="1" fill="none" fill-rule="evenodd" sketch:type="MSPage">
        <g id="KIT-UI" sketch:type="MSArtboardGroup" transform="translate(-689.000000, -185.000000)" fill="#FFFFFF">
            <g id="btn-tweet-reduit" sketch:type="MSLayerGroup" transform="translate(682.000000, 178.000000)">
                <path d="M23.2589307,7.18905559 C23.2069022,7.14299499 23.1433118,7.10844953 23.0797214,7.08484347 C23.0565976,7.07390408 23.0334738,7.0681465 23.004569,7.06238892 C22.9930072,7.06238892 22.9814453,7.05605559 22.9698834,7.05605559 C22.7791121,7.01575256 22.5767789,7.08484347 22.4380362,7.24087377 L20.6129911,9.33835862 C20.2759619,9.72584347 19.636011,9.51338892 19.599591,9.00154044 L19.495534,7.53393438 C19.4781911,7.3381768 19.3625722,7.15969196 19.1833628,7.0681465 C19.0099344,6.97544953 18.7960393,6.97544953 18.6226109,7.07966165 C17.4548595,7.76481317 15.6107373,9.18060105 13.9458244,11.092692 C10.7657252,14.747601 11.4345809,16.4167223 10.8333623,20.4401162 C10.8165976,20.5523889 10.7668814,20.6606313 10.691151,20.744692 L7.02313987,24.848692 C6.81502576,25.0905101 8.07642849,24.9500253 8.17932936,24.848692 C8.41923867,24.6137829 8.65336705,24.3938435 8.7574241,24.2729344 L11.563496,21.4799344 C11.6322893,21.4114192 11.7218939,21.3607526 11.8149672,21.333692 C13.2590479,20.9185707 13.8562197,20.5990253 15.0673282,20.4948132 C17.616726,20.2748738 18.4029349,20.0434192 20.0794096,18.3121162 C20.2441666,18.1422677 20.4141265,17.6091162 20.1834667,17.6672677 C19.0186058,17.9637829 17.0715827,17.4513586 17.0715827,17.4513586 C16.0304341,17.1882374 15.602644,17.1721162 16.1344911,16.8479647 C16.2842177,16.756995 17.1004874,16.7869344 17.1004874,16.7869344 C18.190196,16.8145707 20.6569263,17.3638435 22.125865,15.8766617 C22.125865,15.8766617 23.3537383,14.4153889 22.5357342,14.8207223 C21.429839,15.3688435 19.0347924,15.6463586 18.2150541,15.6204495 C17.708065,15.6037526 14.9418817,15.1748132 17.7901545,15.0130253 C20.9425051,14.8333889 22.7039598,13.8615101 22.7039598,13.8615101 C22.894731,13.776298 23.1664356,13.5108738 23.2589307,13.3266313 C24.5712058,10.6142374 24.5654249,8.32329802 23.2589307,7.18905559" id="Imported-Layers" sketch:type="MSShapeGroup"></path>
            </g>
        </g>
    </g>
</svg>